%YAML 1.1
%TAG !u! tag:unity3d.com,2011:
--- !u!114 &11400000
MonoBehaviour:
  m_ObjectHideFlags: 0
  m_CorrespondingSourceObject: {fileID: 0}
  m_PrefabInstance: {fileID: 0}
  m_PrefabAsset: {fileID: 0}
  m_GameObject: {fileID: 0}
  m_Enabled: 1
  m_EditorHideFlags: 0
  m_Script: {fileID: 11500000, guid: d20837e5ecd714515802b3c4d7db9e35, type: 3}
  m_Name: ElephantSettings
  m_EditorClassIdentifier: 
  GameID: 20f0d07fc4dc41903f73aa1436b9e2a54fc7c4dc41903f73aa1436b9e2a54fc7
  GameSecret: 2854cdc3ba3a775fd8e781ed5563f001f161d1e02a2f207db3cbcdd0cfa9cdd0
